<svg version="1.0" xmlns="http://www.w3.org/2000/svg" width="690.000000pt" height="790.000000pt" viewBox="0 0 690.000000 790.000000" preserveAspectRatio="xMidYMid meet">
    <g transform="translate(0.000000,790.000000) scale(0.100000,-0.100000)" stroke="none">
        <path d="M3248 7518 c-505 -1182 -3161 -7418 -3175 -7456 -4 -10 140 -12 717
        -10 l722 3 68 160 c37 88 590 1388 1228 2890 638 1502 1224 2881 1302 3065 79
        184 149 340 157 346 9 8 193 14 613 19 383 5 600 11 600 17 0 9 -149 363 -448
        1068 l-79 185 -790 3 -791 2 -124 -292z"/>
        <path d="M4885 4734 c-133 -301 -834 -2016 -828 -2026 6 -11 1701 -10 1707 1
        3 5 -16 62 -43 127 -27 66 -113 274 -191 464 -78 190 -214 521 -302 735 -183
        446 -308 748 -314 754 -2 2 -15 -23 -29 -55z"/>
        <path d="M3562 1430 c-38 -6 -21 34 -413 -940 l-179 -445 968 -3 c532 -2 1404
        0 1938 4 l972 6 -183 452 c-100 248 -226 559 -280 691 l-97 240 -1347 0 c-740
        0 -1361 -2 -1379 -5z"/>
    </g>
</svg>
